Creating a simulated data set
…
3.4 Conditional replacement of values

The following code is useful if you want to replace a value in one column, and the replacement is conditional upon the value in another column.

mpg %>% 
  mutate(across(.cols = c(displ, cty, hwy),
                .fns = ~case_when(cyl == 4L ~ as.numeric(NA),
                                  TRUE ~ as.numeric(.x))))

## # A tibble: 234 x 11
##    manufacturer model      displ  year   cyl trans      drv     cty   hwy fl    class  
##    <chr>        <chr>      <dbl> <int> <int> <chr>      <chr> <dbl> <dbl> <chr> <chr>  
##  1 audi         a4          NA    1999     4 auto(l5)   f        NA    NA p     compact
##  2 audi         a4          NA    1999     4 manual(m5) f        NA    NA p     compact
##  3 audi         a4          NA    2008     4 manual(m6) f        NA    NA p     compact
##  4 audi         a4          NA    2008     4 auto(av)   f        NA    NA p     compact
##  5 audi         a4           2.8  1999     6 auto(l5)   f        16    26 p     compact
##  6 audi         a4           2.8  1999     6 manual(m5) f        18    26 p     compact
##  7 audi         a4           3.1  2008     6 auto(av)   f        18    27 p     compact
##  8 audi         a4 quattro  NA    1999     4 manual(m5) 4        NA    NA p     compact
##  9 audi         a4 quattro  NA    1999     4 auto(l5)   4        NA    NA p     compact
## 10 audi         a4 quattro  NA    2008     4 manual(m6) 4        NA    NA p     compact
## # ... with 224 more rows
…
Note. See Chapter 10’s example purrr walk through for a guide on how to scrape multiple web tables simultaneously

Simple example.

library(rvest)
library(tidyverse)

html=read_html('https://shop.tcgplayer.com/price-guide/pokemon/base-set') %>% 
  html_table(fill = TRUE)

html

## [[1]]
## # A tibble: 101 x 6
##    PRODUCT   Rarity    Number `Market Price` `Listed Median` ``   
##    <chr>     <chr>      <int> <chr>          <chr>           <chr>
##  1 Abra      Common        43 $0.54          $0.70           View 
##  2 Alakazam  Holo Rare      1 $26.98         —               View 
##  3 Arcanine  Uncommon      23 $1.99          $2.09           View 
##  4 Beedrill  Rare          17 $2.92          $2.72           View 
##  5 Bill      Common        91 $0.49          $0.49           View 
##  6 Blastoise Holo Rare      2 $101.89        —               View 
##  7 Bulbasaur Common        44 $1.92          $2.68           View 
##  8 Caterpie  Common        45 $0.50          $0.60           View 
##  9 Chansey   Holo Rare      3 $15.84         —               View 
## 10 Charizard Holo Rare      4 $351.09        —               View 
## # ... with 91 more rows

# Saved as a list by default. Now extract your table from said list
html=as_tibble(html[[1]] %>% # find out which number it is in the list
                 select('PRODUCT','Rarity','Number','Market Price')) # if needed, specify which columns you want too

html

## # A tibble: 101 x 4
##    PRODUCT   Rarity    Number `Market Price`
##    <chr>     <chr>      <int> <chr>         
##  1 Abra      Common        43 $0.54         
##  2 Alakazam  Holo Rare      1 $26.98        
##  3 Arcanine  Uncommon      23 $1.99         
##  4 Beedrill  Rare          17 $2.92         
##  5 Bill      Common        91 $0.49         
##  6 Blastoise Holo Rare      2 $101.89       
##  7 Bulbasaur Common        44 $1.92         
##  8 Caterpie  Common        45 $0.50         
##  9 Chansey   Holo Rare      3 $15.84        
## 10 Charizard Holo Rare      4 $351.09       
## # ... with 91 more rows
…
