Chapter 11 Functions, Loops, and Iterative Programming | R Coding Compendium
…
# function
quick_read_html=function(url){
  url=url %>% read_html(url) %>%
    html_table(fill = TRUE) 
}

html=quick_read_html("https://scores.nbcsports.com/golf/averages.asp?tour=LPGA&rank=04")

11.3.3.2 2. Find out which element of the list the desired table is in

as_tibble(html1[[2]])

## # A tibble: 172 x 3
##    X1    X2                   X3      
##    <chr> <chr>                <chr>   
##  1 Rank  Name                 Distance
##  2 1     Anne van Dam         290.778 
##  3 2     Bianca Pagdanganan   285.021 
##  4 3     A Lim Kim            279.122 
##  5 4     Lexi Thompson        278.832 
##  6 5     Maria Fassi          278.107 
##  7 6     Brooke Henderson     275.22  
##  8 7     Jessica Korda        275.17  
##  9 8     Nanna Koerstz Madsen 274.807 
## 10 9     Patty Tavatanakit    274.653 
## # ... with 162 more rows
…
