Chapter 9 Misc. Stuff | Creating a simulated data set
…
## The following object is masked from 'package:readr':
## 
##     guess_encoding

library(tidyverse)

html=read_html('https://shop.tcgplayer.com/price-guide/pokemon/base-set') %>% 
  html_table(fill = TRUE)

html

## [[1]]
## # A tibble: 101 x 6
##    PRODUCT   Rarity    Number `Market Price` `Listed Median` ``   
##    <chr>     <chr>      <int> <chr>          <chr>           <chr>
##  1 Abra      Common        43 $0.39          $0.51           View 
##  2 Alakazam  Holo Rare      1 $35.69         —               View 
##  3 Arcanine  Uncommon      23 $2.30          $2.09           View 
##  4 Beedrill  Rare          17 $4.16          $3.88           View 
##  5 Bill      Common        91 $0.31          $0.34           View 
##  6 Blastoise Holo Rare      2 $119.62        —               View 
##  7 Bulbasaur Common        44 $1.61          $2.31           View 
##  8 Caterpie  Common        45 $0.77          $0.78           View 
##  9 Chansey   Holo Rare      3 $24.25         —               View 
## 10 Charizard Holo Rare      4 $337.16        —               View 
## # ... with 91 more rows

# Saved as a list by default. Now extract your table from said list
html=as_tibble(html[[1]] %>% # find out which number it is in the list
                 select('PRODUCT','Rarity','Number','Market Price')) # if needed, specify which columns you want too

html

## # A tibble: 101 x 4
##    PRODUCT   Rarity    Number `Market Price`
##    <chr>     <chr>      <int> <chr>         
##  1 Abra      Common        43 $0.39         
##  2 Alakazam  Holo Rare      1 $35.69        
##  3 Arcanine  Uncommon      23 $2.30         
##  4 Beedrill  Rare          17 $4.16         
##  5 Bill      Common        91 $0.31         
##  6 Blastoise Holo Rare      2 $119.62       
##  7 Bulbasaur Common        44 $1.61         
##  8 Caterpie  Common        45 $0.77         
##  9 Chansey   Holo Rare      3 $24.25        
## 10 Charizard Holo Rare      4 $337.16       
## # ... with 91 more rows
…
