Chapter 10 Misc. Stuff | R Coding Compendium
…
# Saved as a list by default. Now extract your table from said list
html=as_tibble(html[[1]] %>% # find out which number it is in the list
                 select('PRODUCT','Rarity','Number','Market Price')) # if needed, specify which columns you want too

html

## # A tibble: 101 x 4
##    PRODUCT   Rarity    Number `Market Price`
##    <chr>     <chr>      <int> <chr>         
##  1 Abra      Common        43 $0.81         
##  2 Alakazam  Holo Rare      1 $31.05        
##  3 Arcanine  Uncommon      23 $2.38         
##  4 Beedrill  Rare          17 $2.87         
##  5 Bill      Common        91 $0.31         
##  6 Blastoise Holo Rare      2 $116.57       
##  7 Bulbasaur Common        44 $1.94         
##  8 Caterpie  Common        45 $0.88         
##  9 Chansey   Holo Rare      3 $18.98        
## 10 Charizard Holo Rare      4 $366.49       
## # ... with 91 more rows
…
exonerations_table=as_tibble(exonerations_table) %>% # convert to tibble
  mutate(across(c(dna,mwid:ild), na_if,"")) %>% # turn missing values into NA's
  mutate(across(c(dna,mwid:ild), replace_na, "derp")) %>% # replace NA's with a some string (needed for the next lines to work)
  mutate(dna=ifelse(dna=="DNA",1,0), # change these variables from text to numeric to better facilitate analysis
         mwid=ifelse(mwid=="MWID",1,0),
         fc=ifelse(fc=="FC",1,0),
         p_fa=ifelse(p_fa=="P/FA",1,0),
         f_mfe=ifelse(f_mfe=="F/MFE",1,0)) %>% 
  mutate(across(c(st, crime, dna:f_mfe),factor)) # correct form by converting to factors

exonerations_table

## # A tibble: 2,839 x 20
##    last_name first_name   age race  st    county_of_crime tags  om_tags crime sentence convicted exonerated dna   x     mwid  fc    p_fa  f_mfe
##    <chr>     <chr>      <int> <chr> <fct> <chr>           <chr> <chr>   <fct> <chr>        <int>      <int> <fct> <fct> <fct> <fct> <fct> <fct>
##  1 Abbitt    Joseph        31 Black NC    Forsyth         CV, ~ ""      Chil~ Life          1995       2009 1     ""    1     0     0     0    
##  2 Abdal     Warith Ha~    43 Black NY    Erie            IO    "OF, W~ Sexu~ 20 to L~      1983       1999 1     ""    1     0     0     1    
##  3 Abernathy Christoph~    17 White IL    Cook            CIU,~ "OF, W~ Murd~ Life wi~      1987       2015 1     ""    0     1     1     0    
##  4 Abney     Quentin       32 Black NY    New York        CV    ""      Robb~ 20 to L~      2006       2012 0     ""    1     0     0     0    
##  5 Acero     Longino       35 Hisp~ CA    Santa Clara     NC, P ""      Sex ~ 2 years~      1994       2006 0     ""    0     0     0     0    
##  6 Adams     Anthony       26 Hisp~ CA    Los Angeles     H, P  "OF, W~ Mans~ 12 years      1996       2001 0     ""    0     0     1     0    
##  7 Adams     Cheryl        26 White MA    Essex           F, N~ ""      Theft Probati~      1989       1993 0     ""    0     0     1     0    
##  8 Adams     Darryl        25 Black TX    Dallas          CIU,~ ""      Sexu~ 25 years      1992       2017 1     "*"   0     0     1     0    
##  9 Adams     Demetris      22 Black IL    Cook            CIU,~ "OF, W~ Drug~ 1 year        2004       2020 0     ""    0     0     1     0    
## 10 Adams     Don Ray       32 Black PA    Philadelphia    H     "OF, W~ Murd~ Life          1992       2011 0     ""    0     0     1     0    
## # ... with 2,829 more rows, and 2 more variables: om <chr>, ild <chr>
…
