Chapter 7 Working with Strings | R Coding Compendium
…
# Saved as a list by default. Now extract your table from said list
html=as_tibble(html[[1]] %>% # find out which number it is in the list
                 select('PRODUCT','Rarity','Number','Market Price')) # if needed, specify which columns you want too

html

## # A tibble: 101 x 4
##    PRODUCT   Rarity    Number `Market Price`
##    <chr>     <chr>      <int> <chr>         
##  1 Abra      Common        43 $0.81         
##  2 Alakazam  Holo Rare      1 $31.05        
##  3 Arcanine  Uncommon      23 $2.38         
##  4 Beedrill  Rare          17 $2.87         
##  5 Bill      Common        91 $0.31         
##  6 Blastoise Holo Rare      2 $116.57       
##  7 Bulbasaur Common        44 $1.94         
##  8 Caterpie  Common        45 $0.88         
##  9 Chansey   Holo Rare      3 $18.98        
## 10 Charizard Holo Rare      4 $366.49       
## # ... with 91 more rows
…
