Chapter 3 Wrangle Data | Creating a simulated data set
…
3.5 Conditional replacement of values

The following code is useful if you want to replace a value in one column, and the replacement is conditional upon the value in another column.

mpg %>% 
  mutate(across(.cols = c(displ, cty, hwy),
                .fns = ~case_when(cyl == 4L ~ as.numeric(NA),
                                  TRUE ~ as.numeric(.x))))

## # A tibble: 234 x 11
##    manufacturer model      displ  year   cyl trans    drv     cty   hwy fl    class
##    <chr>        <chr>      <dbl> <int> <int> <chr>    <chr> <dbl> <dbl> <chr> <chr>
##  1 audi         a4          NA    1999     4 auto(l5) f        NA    NA p     comp~
##  2 audi         a4          NA    1999     4 manual(~ f        NA    NA p     comp~
##  3 audi         a4          NA    2008     4 manual(~ f        NA    NA p     comp~
##  4 audi         a4          NA    2008     4 auto(av) f        NA    NA p     comp~
##  5 audi         a4           2.8  1999     6 auto(l5) f        16    26 p     comp~
##  6 audi         a4           2.8  1999     6 manual(~ f        18    26 p     comp~
##  7 audi         a4           3.1  2008     6 auto(av) f        18    27 p     comp~
##  8 audi         a4 quattro  NA    1999     4 manual(~ 4        NA    NA p     comp~
##  9 audi         a4 quattro  NA    1999     4 auto(l5) 4        NA    NA p     comp~
## 10 audi         a4 quattro  NA    2008     4 manual(~ 4        NA    NA p     comp~
## # ... with 224 more rows
…
